<svg version="1.1" viewBox="0 0 106 24" xmlns="http://www.w3.org/2000/svg">
  <path d="m32.7 23.5v-23h1.25v3.63a4.74 4.74 0 0 0 0.408-0.511c1.04-2.17 3.25-3.53 5.65-3.51 2.85-0.085 5.17 0.97 6.53 3.51a11.3 11.3 0 0 1 0.272 10.3c-1.27 2.84-4.4 4.26-7.75 3.74a6.27 6.27 0 0 1-5-3.3v9.16zm1.25-14.9 0.28 2.71c0.494 3.08 2.32 4.9 5.17 5.24a5.88 5.88 0 0 0 6.46-3.74c1.11-2.65 1.03-5.65-0.22-8.24a5.76 5.76 0 0 0-6.07-3.35 5.61 5.61 0 0 0-5.01 4.14 28.6 28.6 0 0 0-0.613 3.23zm39.5 3.13a6.74 6.74 0 0 1-6.59 5.96c-5.24 0.264-7.7-3.22-8.09-7.23a11.6 11.6 0 0 1 1.02-6.38 7.12 7.12 0 0 1 7.41-3.97 6.81 6.81 0 0 1 6.04 5.18 35 35 0 0 1 0.587 3.83h-13.8c-0.255 3.64 1.7 6.57 4.48 7.28 3.46 0.85 6.41-0.647 7.48-3.93 0.238-0.843 0.672-0.962 1.44-0.723zm-13.4-3.79h12.3c-0.077-3.88-2.49-6.7-5.77-6.73-3.7-0.06-6.38 2.65-6.54 6.73zm15.9 3.87h1.21a4.84 4.84 0 0 0 2.84 4.17 7.43 7.43 0 0 0 6.45-0.17 2.9 2.9 0 0 0 1.7-2.85 2.63 2.63 0 0 0-1.77-2.63c-1.33-0.494-2.74-0.766-4.09-1.2a30 30 0 0 1-4.12-1.51c-2.18-1.06-2.32-5.21 0.153-6.52a8.69 8.69 0 0 1 8.31-0.128c1.59 0.88 2.48 2.66 2.21 4.46h-1.04c0-0.05-0.094-0.094-0.094-0.145-0.128-3.3-2.9-4.33-5.88-4.04-0.9 0.1-1.75 0.372-2.55 0.774a2.55 2.55 0 0 0-1.48 2.55 2.55 2.55 0 0 0 1.7 2.4c1.3 0.477 2.68 0.783 4.02 1.16l3.25 0.85a3.84 3.84 0 0 1 2.64 3.46c0.26 1.74-0.63 3.46-2.2 4.26-2.84 1.61-7.52 1.18-9.61-0.85-1.07-1.07-1.66-2.53-1.65-4.04zm28.8-6.37h-1.13c0-0.153-0.06-0.3-0.077-0.417a3.7 3.7 0 0 0-3.01-3.56 7.43 7.43 0 0 0-4.77 0.23 2.9 2.9 0 0 0-2.1 2.77 2.67 2.67 0 0 0 2.04 2.69l5.17 1.33a14.4 14.4 0 0 1 1.65 0.502c1.65 0.6 2.77 2.13 2.82 3.88a4.25 4.25 0 0 1-2.6 4.04 9.47 9.47 0 0 1-7.66 0.077 5.31 5.31 0 0 1-3.2-5.16h1.11c0.416 2 1.79 3.68 3.68 4.46s4.05 0.596 5.76-0.516a3.04 3.04 0 0 0 1.63-2.84 2.63 2.63 0 0 0-1.8-2.61c-1.33-0.494-2.74-0.757-4.09-1.2a30.2 30.2 0 0 1-4.14-1.49c-2.13-1.05-2.3-5.16 0.128-6.47a8.57 8.57 0 0 1 8.44-0.094 4.45 4.45 0 0 1 2.14 4.37zm-74.1 11.8a1.95 1.95 0 0 1-2.42-0.919l-4.4-6.08-0.638-0.85-5.11 6.94a1.87 1.87 0 0 1-2.3 0.902l6.58-8.82-6.12-7.97c0.908-0.328 1.92 0.028 2.42 0.85l4.56 6.16 4.59-6.14a1.83 1.83 0 0 1 2.28-0.851l-2.38 3.15-3.22 4.19a0.85 0.85 0 0 0 0 1.27l6.13 8.18zm27.9-16.9v1.2a6.17 6.17 0 0 0-6.57 6.37q0 4.2 0 8.41v0.953h-1.22v-16.9h1.2v3.46c1.47-2.52 3.74-3.46 6.6-3.52zm-58.5 7.95 0.536-2.65c1.47-5.23 7.47-7.41 11.6-4.17 2.42 1.9 3.02 4.59 2.9 7.62h-13.6c-0.22 5.41 3.68 8.68 8.68 7.01 1.65-0.6 2.88-1.97 3.29-3.67 0.264-0.85 0.7-0.996 1.5-0.75a6.91 6.91 0 0 1-3.3 5.05 8 8 0 0 1-9.32-1.19c-1.22-1.37-1.95-3.1-2.09-4.92 0-0.3-0.1-0.58-0.17-0.85q-0.01-0.757-0.01-1.48zm1.44-0.366h12.3c-0.077-3.92-2.55-6.71-5.86-6.73-3.68-0.05-6.31 2.67-6.47 6.72z"/>
</svg>
