<svg version="1.1" viewBox="0 0 21.3 9.22" xmlns="http://www.w3.org/2000/svg">
  <defs>
    <linearGradient id="A" x1="5.59" x2="5.59" y1="2.29" y2="8.12" gradientTransform="translate(-1.94 -1.55)" gradientUnits="userSpaceOnUse">
      <stop stop-color="#97d9f6" offset="0"/>
      <stop stop-color="#0f80cc" offset=".92"/>
      <stop stop-color="#0f80cc" offset="1"/>
    </linearGradient>
  </defs>
  <path d="m8.28 4.12c-0.276 0-0.5 0.082-0.672 0.245s-0.26 0.378-0.26 0.64c0 0.136 0.022 0.26 0.064 0.374s0.11 0.22 0.198 0.315 0.268 0.225 0.535 0.4c0.327 0.2 0.54 0.362 0.644 0.488a0.62 0.62 0 0 1 0.154 0.397c0 0.185-0.06 0.332-0.186 0.443s-0.293 0.166-0.5 0.166c-0.22 0-0.4-0.077-0.574-0.23s-0.247-0.357-0.25-0.612h-0.102v0.924h0.102c0.03-0.088 0.074-0.132 0.13-0.132 0.027 0 0.09 0.02 0.2 0.054 0.24 0.086 0.438 0.127 0.594 0.127 0.268 0 0.496-0.094 0.687-0.284a0.94 0.94 0 0 0 0.286-0.688c0-0.208-0.063-0.393-0.188-0.554s-0.366-0.35-0.728-0.565c-0.31-0.187-0.513-0.34-0.606-0.458a0.62 0.62 0 0 1-0.141-0.393 0.46 0.46 0 0 1 0.17-0.374c0.113-0.093 0.26-0.14 0.445-0.14 0.208 0 0.38 0.062 0.518 0.186a0.78 0.78 0 0 1 0.24 0.518h0.102v-0.8h-0.095c-0.012 0.04-0.022 0.067-0.032 0.08s-0.028 0.018-0.055 0.018c-0.033 0-0.092-0.014-0.175-0.04-0.18-0.06-0.344-0.09-0.495-0.09zm3.33 0c-0.336 0-0.64 0.08-0.917 0.238a1.75 1.75 0 0 0-0.656 0.658 1.76 1.76 0 0 0-0.241 0.894 1.71 1.71 0 0 0 0.42 1.14c0.28 0.332 0.618 0.54 1.01 0.62 0.09 0.047 0.217 0.167 0.384 0.36 0.19 0.22 0.348 0.378 0.48 0.472a1.44 1.44 0 0 0 0.422 0.209 1.66 1.66 0 0 0 0.486 0.068c0.212 0 0.4-0.037 0.57-0.113l-0.038-0.093c-0.097 0.035-0.2 0.052-0.31 0.052-0.148 0-0.297-0.05-0.447-0.147s-0.337-0.285-0.56-0.56l-0.218-0.248c0.428-0.083 0.78-0.29 1.05-0.622a1.73 1.73 0 0 0 0.411-1.13 1.7 1.7 0 0 0-0.535-1.27c-0.356-0.345-0.793-0.52-1.31-0.52zm2.08 0 5e-3 0.11c0.224 0 0.35 0.066 0.377 0.198 0.01 0.047 0.015 0.135 0.016 0.26l-2e-3 2.41c-2e-3 0.18-0.028 0.295-0.077 0.345s-0.133 0.08-0.254 0.093l-5e-3 0.11h2.23l0.057-0.547h-0.102c-0.03 0.15-0.096 0.256-0.202 0.316s-0.295 0.09-0.567 0.09h-0.21c-0.245 0-0.386-0.088-0.424-0.266a0.56 0.56 0 0 1-0.011-0.114l0.01-2.44c0-0.18 0.023-0.3 0.07-0.36s0.133-0.092 0.257-0.1l-5e-3 -0.11zm-2.04 0.132a1.13 1.13 0 0 1 0.928 0.451c0.24 0.3 0.358 0.714 0.358 1.24 0 0.496-0.12 0.892-0.36 1.19a1.17 1.17 0 0 1-0.96 0.447 1.12 1.12 0 0 1-0.932-0.461c-0.238-0.308-0.356-0.708-0.356-1.2 0-0.505 0.12-0.9 0.36-1.21s0.56-0.452 0.964-0.452zm5.13 0.52c-0.054 0-0.096 0.018-0.127 0.055a0.15 0.15 0 0 0-0.03 0.136 0.24 0.24 0 0 0 0.088 0.138c0.047 0.04 0.098 0.06 0.152 0.06s0.093-0.02 0.122-0.06 0.038-0.085 0.027-0.138-0.04-0.1-0.084-0.136-0.094-0.055-0.147-0.055zm1.47 0.37c-0.092 0.356-0.293 0.548-0.6 0.58l4e-3 0.102h0.36l-5e-3 1.2 0.02 0.413c0.035 0.167 0.145 0.252 0.327 0.252 0.264 0 0.54-0.16 0.83-0.483l-0.088-0.075c-0.21 0.212-0.394 0.318-0.556 0.318-0.1 0-0.16-0.057-0.184-0.17a0.43 0.43 0 0 1-9e-3 -0.097l4e-3 -1.36h0.55l-5e-3 -0.163h-0.542v-0.518zm2.12 0.454c-0.307 0-0.557 0.15-0.75 0.445s-0.253 0.625-0.177 0.987a0.85 0.85 0 0 0 0.27 0.492c0.136 0.116 0.31 0.173 0.515 0.173 0.192 0 0.46-0.05 0.572-0.147s0.217-0.257 0.313-0.474l-0.077-0.08c-0.153 0.282-0.462 0.424-0.696 0.424-0.32 0-0.517-0.176-0.6-0.526a1.28 1.28 0 0 1-0.021-0.143c0.38-0.06 0.67-0.167 0.865-0.322s0.39-0.32 0.354-0.492a0.4 0.4 0 0 0-0.157-0.245c-0.083-0.06-0.3-0.093-0.42-0.093zm-3.36 0.013-0.662 0.152v0.118l0.23-0.03c0.11 0 0.176 0.05 0.197 0.15a0.81 0.81 0 0 1 0.013 0.139l-7e-3 1.08c-2e-3 0.15-0.018 0.237-0.052 0.263s-0.123 0.04-0.266 0.04l-4e-3 0.102h1.05l-2e-3 -0.102c-0.146 0-0.24-0.01-0.282-0.034s-0.07-0.063-0.082-0.125c-0.01-0.045-0.014-0.122-0.014-0.23l4e-3 -1.53h-0.12zm3.19 0.2c0.064 0 0.126 0.025 0.188 0.073s0.1 0.102 0.11 0.16c0.06 0.288-0.195 0.486-0.77 0.597-0.016-0.2 0.02-0.4 0.113-0.572s0.212-0.26 0.358-0.26z" fill="#003b57"/>
  <path d="m6.39 0.403h-5.69c-0.382 0-0.694 0.312-0.694 0.694v6.28c0 0.382 0.312 0.694 0.694 0.694h3.75c-0.043-1.87 0.595-5.49 1.94-7.67z" fill="#0f80cc"/>
  <path d="m6.18 0.605h-5.49a0.49 0.49 0 0 0-0.491 0.491v5.82c1.24-0.477 3.11-0.888 4.4-0.87 0.26-1.36 1.02-4 1.58-5.44z" fill="url(#A)"/>
  <path d="m7.71 0.197c-0.4-0.348-0.862-0.208-1.33 0.205l-0.207 0.202c-0.797 0.847-1.54 2.41-1.77 3.61 0.1 0.182 0.16 0.413 0.206 0.6l0.03 0.124 0.03 0.14s-7e-3 -0.027-0.036-0.112l-0.02-0.055a0.638 0.638 0 0 0-0.012-0.03c-0.052-0.12-0.196-0.376-0.26-0.487a12.2 12.2 0 0 0-0.142 0.444c0.183 0.334 0.294 0.907 0.294 0.907s-0.01-0.037-0.056-0.167c-0.04-0.115-0.244-0.47-0.292-0.554-0.082 0.304-0.115 0.51-0.085 0.56 0.057 0.097 0.112 0.264 0.16 0.448a10.4 10.4 0 0 1 0.183 0.922l7e-3 0.085a8.46 8.46 0 0 0 0.023 1.03c0.036 0.433 0.103 0.805 0.19 1l0.058-0.032c-0.126-0.392-0.178-0.907-0.155-1.5 0.034-0.907 0.243-2 0.628-3.14 0.65-1.72 1.56-3.1 2.38-3.76-0.754 0.68-1.77 2.88-2.08 3.7-0.342 0.914-0.584 1.77-0.73 2.59 0.252-0.77 1.07-1.1 1.07-1.1s0.4-0.493 0.866-1.2l-0.893 0.238-0.288 0.128s0.735-0.448 1.37-0.65c0.867-1.37 1.81-3.31 0.86-4.16" fill="#003b57"/>
</svg>
